{
    "tasks": [
        {
            "type": "RootObjectsRecursive",
            "processors": [
                {
                    "condition": {
                        "type": "NameEquals",
                        "value": "Plane-00 (4)"
                    },
                    "actions": [
                        {
                            "type": "SetParent",
                            "value": null
                        }
                    ]
                },
                {
                    "condition": {
                        "type": "Gate",
                        "gate": "AND",
                        "values": [
                            {
                                "type": "NameEquals",
                                "value": "Posters"
                            }
                        ]
                    },
                    "actions": [
                        {
                            "type": "SetActive",
                            "value": false
                        }
                    ]
                },
                {
                    "condition": {
                        "type": "Gate",
                        "gate": "OR",
                        "values": [
                            {
                                "type": "NameContains",
                                "value": [
                                    "Discord Boosters",
                                ]
                            }
                        ]
                    },
                    "actions": [
                        {
                            "type": "SetActive",
                            "value": false
                        }
                    ]
                },
                {
                    "condition": {
                        "type": "Gate",
                        "gate": "OR",
                        "values": [
                            {
                                "type": "Gate",
                                "gate": "AND",
                                "values": [
                                    {
                                        "type": "NameContains",
                                        "value": "Pillow"
                                    },
                                    {
                                        "type": "NameEquals",
                                        "value": "Pillows",
                                        "negate": true
                                    }
                                ]
                            },
                            {
                                "type": "NameContains",
                                "value": "Jenny Pillow"
                            }
                        ]
                    },
                    "actions": [
                        {
                            "type": "RendererMaterial",
                            "texture": {
                                "type": "Null"
                            }
                        }
                    ]
                }
            ]
        }
    ]
}
